{"page":2,"per_page":6,"total":12,"total_pages":2,
"data":[
    {"id":1,
    "email":"michael.lawson@reqres.in",
    "first_name":"Michael",
    "last_name":"Lawson"},
    {"id":2,"email":"lindsay.ferguson@reqres.in",
    "first_name":"Lindsay","last_name":"Ferguson"}
    ,{"id":3,"email":"tobias.funke@reqres.in",
    "first_name":"Tobias",
    "last_name":"Funke"},
    {"id":4,
    "email":"byron.fields@reqres.in",
    "first_name":"Byron",
    "last_name":"Fields"}]
    }